\relax 
\providecommand\hyper@newdestlabel[2]{}
\providecommand\HyperFirstAtBeginDocument{\AtBeginDocument}
\HyperFirstAtBeginDocument{\ifx\hyper@anchor\@undefined
\global\let\oldcontentsline\contentsline
\gdef\contentsline#1#2#3#4{\oldcontentsline{#1}{#2}{#3}}
\global\let\oldnewlabel\newlabel
\gdef\newlabel#1#2{\newlabelxx{#1}#2}
\gdef\newlabelxx#1#2#3#4#5#6{\oldnewlabel{#1}{{#2}{#3}}}
\AtEndDocument{\ifx\hyper@anchor\@undefined
\let\contentsline\oldcontentsline
\let\newlabel\oldnewlabel
\fi}
\fi}
\global\let\hyper@last\relax 
\gdef\HyperFirstAtBeginDocument#1{#1}
\providecommand\HyField@AuxAddToFields[1]{}
\providecommand\HyField@AuxAddToCoFields[2]{}
\@writefile{toc}{\contentsline {section}{\numberline {1}Wst\k ep}{1}{section.1}}
\@writefile{toc}{\contentsline {section}{\numberline {2}Za\IeC {\l }o\.zenia dotycz\k ace z\IeC {\l }o\.zono\'sci obliczeniowej}{1}{section.2}}
\@writefile{lot}{\contentsline {table}{\numberline {1}{\ignorespaces Pomiary dla algorytmu Dijkstry\relax }}{1}{table.caption.1}}
\providecommand*\caption@xref[2]{\@setref\relax\@undefined{#1}}
\newlabel{my-label}{{1}{1}{Pomiary dla algorytmu Dijkstry\relax }{table.caption.1}{}}
\@writefile{toc}{\contentsline {section}{\numberline {3}Pomiary}{1}{section.3}}
\@writefile{toc}{\contentsline {subsection}{\numberline {3.1}Wykres}{1}{subsection.3.1}}
